FPGA/Architecture2(1080P@60Hz)/1080p@60/la0_waveform.vcd
#0 $dumpon
$date today $end
$timescale 1 ns $end
$scope module top $end
$var wire 24 0 LCD_DATA $end
$var wire 1 1 LCD_DE $end
$var wire 1 2 LCD_DCLK $end
$var wire 1 3 LCD_HS $end
$var wire 1 4 LCD_VS $end
$upscope $end
$enddefinitions $end
#0
$dumpvars
b000010001011000011001001 0
11
12
13
14
$end
#1
b000010000111110011001011 0
#2
b000010000100100011001101 0
#3
b000010000001010011001111 0
#4
b000010001110000011010000 0
#5
b000010001010110011010010 0
#6
b000010000111100011010100 0
#7
b000010000100010011010110 0
#8
b000010000001000011011000 0
#9
b000010001101110011011001 0
#10
b000010001010100011011011 0
#11
b000010000111010011011101 0
#12
b000010000100000011011111 0
#13
b000010000000110011100001 0
#14
b000010001101100011100010 0
#15
b000010001010010011100100 0
#16
b000010000111000011100110 0
#17
b000010000011110011101000 0
#18
b000010000000100011101010 0
#19
b000010001101010011101011 0
#20
b000010001010000011101101 0
#21
b000010000110110011101111 0
#22
b000010000011100011110001 0
#23
b000010000000010011110011 0
#24
b000010001101000011110100 0
#25
b000010001001110011110110 0
#26
b000010000110100011111000 0
#27
b000010000011010011111010 0
#28
b000100000001000000010000 0
01
#138
03
#178
13
#398
b000000000000000000000000 0
11
#399
b000000001100110100000001 0
#400
b000000001001101000000011 0
#401
b000000000110011100000101 0
#402
b000000000011010000000111 0
#403
b000000000000000100001001 0
#404
b000000001100111000001010 0
#405
b000000001001101100001100 0
#406
b000000000110100000001110 0
#407
b000000000011010100010000 0
#408
b000000000000001000010010 0
#409
b000000001100111100010011 0
#410
b000000001001110000010101 0
#411
b000000000110100100010111 0
#412
b000000000011011000011001 0
#413
b000000000000001100011011 0
#414
b000000001101000000011100 0
#415
b000000001001110100011110 0
#416
b000000000110101000100000 0
#417
b000000000011011100100010 0
#418
b000000000000010000100100 0
#419
b000000001101000100100101 0
#420
b000000001001111000100111 0
#421
b000000000110101100101001 0
#422
b000000000011100000101011 0
#423
b000000000000010100101101 0
#424
b000000001101001000101110 0
#425
b000000001001111100110000 0
#426
b000000000110110000110010 0
#427
b000000000011100100110100 0
#428
b000000000000011000110110 0
#429
b000000001101001100110111 0
#430
b000000001010000000111001 0
#431
b000000000110110100111011 0
#432
b000000000011101000111101 0
#433
b000000000000011100111111 0
#434
b000000001101010001000000 0
#435
b000000001010000101000010 0
#436
b000000000110111001000100 0
#437
b000000000011101101000110 0
#438
b000000000000100001001000 0
#439
b000000001101010101001001 0
#440
b000000001010001001001011 0
#441
b000000000110111101001101 0
#442
b000000000011110001001111 0
#443
b000000000000100101010001 0
#444
b000000001101011001010010 0
#445
b000000001010001101010100 0
#446
b000000000111000001010110 0
#447
b000000000011110101011000 0
#448
b000000000000101001011010 0
#449
b000000001101011101011011 0
#450
b000000001010010001011101 0
#451
b000000000111000101011111 0
#452
b000000000011111001100001 0
#453
b000000000000101101100011 0
#454
b000000001101100001100100 0
#455
b000000001010010101100110 0
#456
b000000000111001001101000 0
#457
b000000000011111101101010 0
#458
b000000000000110001101100 0
#459
b000000001101100101101101 0
#460
b000000001010011001101111 0
#461
b000000000111001101110001 0
#462
b000000000100000001110011 0
#463
b000000000000110101110101 0
#464
b000000001101101001110110 0
#465
b000000001010011101111000 0
#466
b000000000111010001111010 0
#467
b000000000100000101111100 0
#468
b000000000000111001111110 0
#469
b000000001101101101111111 0
#470
b000000001010100010000001 0
#471
b000000000111010110000011 0
#472
b000000000100001010000101 0
#473
b000000000000111110000111 0
#474
b000000001101110010001000 0
#475
b000000001010100110001010 0
#476
b000000000111011010001100 0
#477
b000000000100001110001110 0
#478
b000000000001000010010000 0
#479
b000000001101110110010001 0
#480
b000000001010101010010011 0
#481
b000000000111011110010101 0
#482
b000000000100010010010111 0
#483
b000000000001000110011001 0
#484
b000000001101111010011010 0
#485
b000000001010101110011100 0
#486
b000000000111100010011110 0
#487
b000000000100010110100000 0
#488
b000000000001001010100010 0
#489
b000000001101111110100011 0
#490
b000000001010110010100101 0
#491
b000000000111100110100111 0
#492
b000000000100011010101001 0
#493
b000000000001001110101011 0
#494
b000000001110000010101100 0
#495
b000000001010110110101110 0
#496
b000000000111101010110000 0
#497
b000000000100011110110010 0
#498
b000000000001010010110100 0
#499
b000000001110000110110101 0
#500
b000000001010111010110111 0
#501
b000000000111101110111001 0
#502
b000000000100100010111011 0
#503
b000000000001010110111101 0
#504
b000000001110001010111110 0
#505
b000000001010111111000000 0
#506
b000000000111110011000010 0
#507
b000000000100100111000100 0
#508
b000000000001011011000110 0
#509
b000000001110001111000111 0
#510
b000000001011000011001001 0
#511
b000000000111110111001011 0
#512
b000000000100101011001101 0
#513
b000000000001011111001111 0
#514
b000000001110010011010000 0
#515
b000000001011000111010010 0
#516
b000000000111111011010100 0
#517
b000000000100101111010110 0
#518
b000000000001100011011000 0
#519
b000000001110010111011001 0
#520
b000000001011001011011011 0
#521
b000000000111111111011101 0
#522
b000000000100110011011111 0
#523
b000000000001100111100001 0
#524
b000000001110011011100010 0
#525
b000000001011001111100100 0
#526
b000000001000000011100110 0
#527
b000000000100110111101000 0
#528
b000000000001101011101010 0
#529
b000000001110011111101011 0
#530
b000000001011010011101101 0
#531
b000000001000000111101111 0
#532
b000000000100111011110001 0
#533
b000000000001101111110011 0
#534
b000000001110100011110100 0
#535
b000000001011010111110110 0
#536
b000000001000001011111000 0
#537
b000000000100111111111010 0
#538
b000000000001110011111100 0
#539
b000000001110100111111101 0
#540
b000000001011011011111111 0
#541
b000000011000001100000001 0
#542
b000000010101000000000011 0
#543
b000000010001110100000101 0
#544
b000000011110101000000110 0
#545
b000000011011011100001000 0
#546
b000000011000010000001010 0
#547
b000000010101000100001100 0
#548
b000000010001111000001110 0
#549
b000000011110101100001111 0
#550
b000000011011100000010001 0
#551
b000000011000010100010011 0
#552
b000000010101001000010101 0
#553
b000000010001111100010111 0
#554
b000000011110110000011000 0
#555
b000000011011100100011010 0
#556
b000000011000011000011100 0
#557
b000000010101001100011110 0
#558
b000000010010000000100000 0
#559
b000000011110110100100001 0
#560
b000000011011101000100011 0
#561
b000000011000011100100101 0
#562
b000000010101010000100111 0
#563
b000000010010000100101001 0
#564
b000000011110111000101010 0
#565
b000000011011101100101100 0
#566
b000000011000100000101110 0
#567
b000000010101010100110000 0
#568
b000000010010001000110010 0
#569
b000000011110111100110011 0
#570
b000000011011110000110101 0
#571
b000000011000100100110111 0
#572
b000000010101011000111001 0
#573
b000000010010001100111011 0
#574
b000000011111000000111100 0
#575
b000000011011110100111110 0
#576
b000000011000101001000000 0
#577
b000000010101011101000010 0
#578
b000000010010010001000100 0
#579
b000000011111000101000101 0
#580
b000000011011111001000111 0
#581
b000000011000101101001001 0
#582
b000000010101100001001011 0
#583
b000000010010010101001101 0
#584
b000000011111001001001110 0
#585
b000000011011111101010000 0
#586
b000000011000110001010010 0
#587
b000000010101100101010100 0
#588
b000000010010011001010110 0
#589
b000000011111001101010111 0
#590
b000000011100000001011001 0
#591
b000000011000110101011011 0
#592
b000000010101101001011101 0
#593
b000000010010011101011111 0
#594
b000000011111010001100000 0
#595
b000000011100000101100010 0
#596
b000000011000111001100100 0
#597
b000000010101101101100110 0
#598
b000000010010100001101000 0
#599
b000000011111010101101001 0
#600
b000000011100001001101011 0
#601
b000000011000111101101101 0
#602
b000000010101110001101111 0
#603
b000000010010100101110001 0
#604
b000000011111011001110010 0
#605
b000000011100001101110100 0
#606
b000000011001000001110110 0
#607
b000000010101110101111000 0
#608
b000000010010101001111010 0
#609
b000000011111011101111011 0
#610
b000000011100010001111101 0
#611
b000000011001000101111111 0
#612
b000000010101111010000001 0
#613
b000000010010101110000011 0
#614
b000000011111100010000100 0
#615
b000000011100010110000110 0
#616
b000000011001001010001000 0
#617
b000000010101111110001010 0
#618
b000000010010110010001100 0
#619
b000000011111100110001101 0
#620
b000000011100011010001111 0
#621
b000000011001001110010001 0
#622
b000000010110000010010011 0
#623
b000000010010110110010101 0
#624
b000000011111101010010110 0
#625
b000000011100011110011000 0
#626
b000000011001010010011010 0
#627
b000000010110000110011100 0
#628
b000000010010111010011110 0
#629
b000000011111101110011111 0
#630
b000000011100100010100001 0
#631
b000000011001010110100011 0
#632
b000000010110001010100101 0
#633
b000000010010111110100111 0
#634
b000000011111110010101000 0
#635
b000000011100100110101010 0
#636
b000000011001011010101100 0
#637
b000000010110001110101110 0
#638
b000000010011000010110000 0
#639
b000000011111110110110001 0
#640
b000000011100101010110011 0
#641
b000000011001011110110101 0
#642
b000000010110010010110111 0
#643
b000000010011000110111001 0
#644
b000000011111111010111010 0
#645
b000000011100101110111100 0
#646
b000000011001100010111110 0
#647
b000000010110010111000000 0
#648
b000000010011001011000010 0
#649
b000000011111111111000011 0
#650
b000000011100110011000101 0
#651
b000000011001100111000111 0
#652
b000000010110011011001001 0
#653
b000000010011001111001011 0
#654
b000000010000000011001101 0
#655
b000000011100110111001110 0
#656
b000000011001101011010000 0
#657
b000000010110011111010010 0
#658
b000000010011010011010100 0
#659
b000000010000000111010110 0
#660
b000000011100111011010111 0
#661
b000000011001101111011001 0
#662
b000000010110100011011011 0
#663
b000000010011010111011101 0
#664
b000000010000001011011111 0
#665
b000000011100111111100000 0
#666
b000000011001110011100010 0
#667
b000000010110100111100100 0
#668
b000000010011011011100110 0
#669
b000000010000001111101000 0
#670
b000000011101000011101001 0
#671
b000000011001110111101011 0
#672
b000000010110101011101101 0
#673
b000000010011011111101111 0
#674
b000000010000010011110001 0
#675
b000000011101000111110010 0
#676
b000000011001111011110100 0
#677
b000000010110101111110110 0
#678
b000000010011100011111000 0
#679
b000000010000010111111010 0
#680
b000000011101001011111011 0
#681
b000000011001111111111101 0
#682
b000000010110110011111111 0
#683
b000000100011100100000001 0
#684
b000000100000011000000011 0
#685
b000000101101001100000100 0
#686
b000000101010000000000110 0
#687
b000000100110110100001000 0
#688
b000000100011101000001010 0
#689
b000000100000011100001100 0
#690
b000000101101010000001101 0
#691
b000000101010000100001111 0
#692
b000000100110111000010001 0
#693
b000000100011101100010011 0
#694
b000000100000100000010101 0
#695
b000000101101010100010110 0
#696
b000000101010001000011000 0
#697
b000000100110111100011010 0
#698
b000000100011110000011100 0
#699
b000000100000100100011110 0
#700
b000000101101011000011111 0
#701
b000000101010001100100001 0
#702
b000000100111000000100011 0
#703
b000000100011110100100101 0
#704
b000000100000101000100111 0
#705
b000000101101011100101000 0
#706
b000000101010010000101010 0
#707
b000000100111000100101100 0
#708
b000000100011111000101110 0
#709
b000000100000101100110000 0
#710
b000000101101100000110001 0
#711
b000000101010010100110011 0
#712
b000000100111001000110101 0
#713
b000000100011111100110111 0
#714
b000000100000110000111001 0
#715
b000000101101100100111010 0
#716
b000000101010011000111100 0
#717
b000000100111001100111110 0
#718
b000000100100000001000000 0
#719
b000000100000110101000010 0
#720
b000000101101101001000011 0
#721
b000000101010011101000101 0
#722
b000000100111010001000111 0
#723
b000000100100000101001001 0
#724
b000000100000111001001011 0
#725
b000000101101101101001100 0
#726
b000000101010100001001110 0
#727
b000000100111010101010000 0
#728
b000000100100001001010010 0
#729
b000000100000111101010100 0
#730
b000000101101110001010101 0
#731
b000000101010100101010111 0
#732
b000000100111011001011001 0
#733
b000000100100001101011011 0
#734
b000000100001000001011101 0
#735
b000000101101110101011110 0
#736
b000000101010101001100000 0
#737
b000000100111011101100010 0
#738
b000000100100010001100100 0
#739
b000000100001000101100110 0
#740
b000000101101111001100111 0
#741
b000000101010101101101001 0
#742
b000000100111100001101011 0
#743
b000000100100010101101101 0
#744
b000000100001001001101111 0
#745
b000000101101111101110000 0
#746
b000000101010110001110010 0
#747
b000000100111100101110100 0
#748
b000000100100011001110110 0
#749
b000000100001001101111000 0
#750
b000000101110000001111001 0
#751
b000000101010110101111011 0
#752
b000000100111101001111101 0
#753
b000000100100011101111111 0
#754
b000000100001010010000001 0
#755
b000000101110000110000010 0
#756
b000000101010111010000100 0
#757
b000000100111101110000110 0
#758
b000000100100100010001000 0
#759
b000000100001010110001010 0
#760
b000000101110001010001011 0
#761
b000000101010111110001101 0
#762
b000000100111110010001111 0
#763
b000000100100100110010001 0
#764
b000000100001011010010011 0
#765
b000000101110001110010100 0
#766
b000000101011000010010110 0
#767
b000000100111110110011000 0
#768
b000000100100101010011010 0
#769
b000000100001011110011100 0
#770
b000000101110010010011101 0
#771
b000000101011000110011111 0
#772
b000000100111111010100001 0
#773
b000000100100101110100011 0
#774
b000000100001100010100101 0
#775
b000000101110010110100110 0
#776
b000000101011001010101000 0
#777
b000000100111111110101010 0
#778
b000000100100110010101100 0
#779
b000000100001100110101110 0
#780
b000000101110011010101111 0
#781
b000000101011001110110001 0
#782
b000000101000000010110011 0
#783
b000000100100110110110101 0
#784
b000000100001101010110111 0
#785
b000000101110011110111000 0
#786
b000000101011010010111010 0
#787
b000000101000000110111100 0
#788
b000000100100111010111110 0
#789
b000000100001101111000000 0
#790
b000000101110100011000001 0
#791
b000000101011010111000011 0
#792
b000000101000001011000101 0
#793
b000000100100111111000111 0
#794
b000000100001110011001001 0
#795
b000000101110100111001010 0
#796
b000000101011011011001100 0
#797
b000000101000001111001110 0
#798
b000000100101000011010000 0
#799
b000000100001110111010010 0
#800
b000000101110101011010011 0
#801
b000000101011011111010101 0
#802
b000000101000010011010111 0
#803
b000000100101000111011001 0
#804
b000000100001111011011011 0
#805
b000000101110101111011100 0
#806
b000000101011100011011110 0
#807
b000000101000010111100000 0
#808
b000000100101001011100010 0
#809
b000000100001111111100100 0
#810
b000000101110110011100101 0
#811
b000000101011100111100111 0
#812
b000000101000011011101001 0
#813
b000000100101001111101011 0
#814
b000000100010000011101101 0
#815
b000000101110110111101110 0
#816
b000000101011101011110000 0
#817
b000000101000011111110010 0
#818
b000000100101010011110100 0
#819
b000000100010000111110110 0
#820
b000000101110111011110111 0
#821
b000000101011101111111001 0
#822
b000000101000100011111011 0
#823
b000000100101010111111101 0
#824
b000000100010001011111111 0
#825
b000000111110111100000000 0
#826
b000000111011110000000010 0
#827
b000000111000100100000100 0
#828
b000000110101011000000110 0
#829
b000000110010001100001000 0
#830
b000000111111000000001001 0
#831
b000000111011110100001011 0
#832
b000000111000101000001101 0
#833
b000000110101011100001111 0
#834
b000000110010010000010001 0
#835
b000000111111000100010010 0
#836
b000000111011111000010100 0
#837
b000000111000101100010110 0
#838
b000000110101100000011000 0
#839
b000000110010010100011010 0
#840
b000000111111001000011011 0
#841
b000000111011111100011101 0
#842
b000000111000110000011111 0
#843
b000000110101100100100001 0
#844
b000000110010011000100011 0
#845
b000000111111001100100100 0
#846
b000000111100000000100110 0
#847
b000000111000110100101000 0
#848
b000000110101101000101010 0
#849
b000000110010011100101100 0
#850
b000000111111010000101101 0
#851
b000000111100000100101111 0
#852
b000000111000111000110001 0
#853
b000000110101101100110011 0
#854
b000000110010100000110101 0
#855
b000000111111010100110110 0
#856
b000000111100001000111000 0
#857
b000000111000111100111010 0
#858
b000000110101110000111100 0
#859
b000000110010100100111110 0
#860
b000000111111011000111111 0
#861
b000000111100001101000001 0
#862
b000000111001000001000011 0
#863
b000000110101110101000101 0
#864
b000000110010101001000111 0
#865
b000000111111011101001000 0
#866
b000000111100010001001010 0
#867
b000000111001000101001100 0
#868
b000000110101111001001110 0
#869
b000000110010101101010000 0
#870
b000000111111100001010001 0
#871
b000000111100010101010011 0
#872
b000000111001001001010101 0
#873
b000000110101111101010111 0
#874
b000000110010110001011001 0
#875
b000000111111100101011010 0
#876
b000000111100011001011100 0
#877
b000000111001001101011110 0
#878
b000000110110000001100000 0
#879
b000000110010110101100010 0
#880
b000000111111101001100011 0
#881
b000000111100011101100101 0
#882
b000000111001010001100111 0
#883
b000000110110000101101001 0
#884
b000000110010111001101011 0
#885
b000000111111101101101100 0
#886
b000000111100100001101110 0
#887
b000000111001010101110000 0
#888
b000000110110001001110010 0
#889
b000000110010111101110100 0
#890
b000000111111110001110101 0
#891
b000000111100100101110111 0
#892
b000000111001011001111001 0
#893
b000000110110001101111011 0
#894
b000000110011000001111101 0
#895
b000000111111110101111110 0
#896
b000000111100101010000000 0
#897
b000000111001011110000010 0
#898
b000000110110010010000100 0
#899
b000000110011000110000110 0
#900
b000000111111111010000111 0
#901
b000000111100101110001001 0
#902
b000000111001100010001011 0
#903
b000000110110010110001101 0
#904
b000000110011001010001111 0
#905
b000000111111111110010000 0
#906
b000000111100110010010010 0
#907
b000000111001100110010100 0
#908
b000000110110011010010110 0
#909
b000000110011001110011000 0
#910
b000000110000000010011010 0
#911
b000000111100110110011011 0
#912
b000000111001101010011101 0
#913
b000000110110011110011111 0
#914
b000000110011010010100001 0
#915
b000000110000000110100011 0
#916
b000000111100111010100100 0
#917
b000000111001101110100110 0
#918
b000000110110100010101000 0
#919
b000000110011010110101010 0
#920
b000000110000001010101100 0
#921
b000000111100111110101101 0
#922
b000000111001110010101111 0
#923
b000000110110100110110001 0
#924
b000000110011011010110011 0
#925
b000000110000001110110101 0
#926
b000000111101000010110110 0
#927
b000000111001110110111000 0
#928
b000000110110101010111010 0
#929
b000000110011011110111100 0
#930
b000000110000010010111110 0
#931
b000000111101000110111111 0
#932
b000000111001111011000001 0
#933
b000000110110101111000011 0
#934
b000000110011100011000101 0
#935
b000000110000010111000111 0
#936
b000000111101001011001000 0
#937
b000000111001111111001010 0
#938
b000000110110110011001100 0
#939
b000000110011100111001110 0
#940
b000000110000011011010000 0
#941
b000000111101001111010001 0
#942
b000000111010000011010011 0
#943
b000000110110110111010101 0
#944
b000000110011101011010111 0
#945
b000000110000011111011001 0
#946
b000000111101010011011010 0
#947
b000000111010000111011100 0
#948
b000000110110111011011110 0
#949
b000000110011101111100000 0
#950
b000000110000100011100010 0
#951
b000000111101010111100011 0
#952
b000000111010001011100101 0
#953
b000000110110111111100111 0
#954
b000000110011110011101001 0
#955
b000000110000100111101011 0
#956
b000000111101011011101100 0
#957
b000000111010001111101110 0
#958
b000000110111000011110000 0
#959
b000000110011110111110010 0
#960
b000000110000101011110100 0
#961
b000000111101011111110101 0
#962
b000000111010010011110111 0
#963
b000000110111000111111001 0
#964
b000000110011111011111011 0
#965
b000000110000101111111101 0
#966
b000000111101100011111110 0
#967
b000001001010010100000000 0
#968
b000001000111001000000010 0
#969
b000001000011111100000100 0
#970
b000001000000110000000110 0
#971
b000001001101100100000111 0
#972
b000001001010011000001001 0
#973
b000001000111001100001011 0
#974
b000001000100000000001101 0
#975
b000001000000110100001111 0
#976
b000001001101101000010000 0
#977
b000001001010011100010010 0
#978
b000001000111010000010100 0
#979
b000001000100000100010110 0
#980
b000001000000111000011000 0
#981
b000001001101101100011001 0
#982
b000001001010100000011011 0
#983
b000001000111010100011101 0
#984
b000001000100001000011111 0
#985
b000001000000111100100001 0
#986
b000001001101110000100010 0
#987
b000001001010100100100100 0
#988
b000001000111011000100110 0
#989
b000001000100001100101000 0
#990
b000001000001000000101010 0
#991
b000001001101110100101011 0
#992
b000001001010101000101101 0
#993
b000001000111011100101111 0
#994
b000001000100010000110001 0
#995
b000001000001000100110011 0
#996
b000001001101111000110100 0
#997
b000001001010101100110110 0
#998
b000001000111100000111000 0
#999
b000001000100010100111010 0
#1000
b000001000001001000111100 0
#1001
b000001001101111100111101 0
#1002
b000001001010110000111111 0
#1003
b000001000111100101000001 0
#1004
b000001000100011001000011 0
#1005
b000001000001001101000101 0
#1006
b000001001110000001000110 0
#1007
b000001001010110101001000 0
#1008
b000001000111101001001010 0
#1009
b000001000100011101001100 0
#1010
b000001000001010001001110 0
#1011
b000001001110000101001111 0
#1012
b000001001010111001010001 0
#1013
b000001000111101101010011 0
#1014
b000001000100100001010101 0
#1015
b000001000001010101010111 0
#1016
b000001001110001001011000 0
#1017
b000001001010111101011010 0
#1018
b000001000111110001011100 0
#1019
b000001000100100101011110 0
#1020
b000001000001011001100000 0
#1021
b000001001110001101100001 0
#1022
b000001001011000001100011 0
#1023
b000001000111110101100101 0
#1024
b000001000100101001100111 0
#1025
b000001000001011101101001 0
#1026
b000001001110010001101010 0
#1027
b000001001011000101101100 0
#1028
b000001000111111001101110 0
#1029
b000001000100101101110000 0
#1030
b000001000001100001110010 0
#1031
b000001001110010101110011 0
#1032
b000001001011001001110101 0
#1033
b000001000111111101110111 0
#1034
b000001000100110001111001 0
#1035
b000001000001100101111011 0
#1036
b000001001110011001111100 0
#1037
b000001001011001101111110 0
#1038
b000001001000000010000000 0
#1039
b000001000100110110000010 0
#1040
b000001000001101010000100 0
#1041
b000001001110011110000101 0
#1042
b000001001011010010000111 0
#1043
b000001001000000110001001 0
#1044
b000001000100111010001011 0
#1045
b000001000001101110001101 0
#1046
b000001001110100010001110 0
#1047
b000001001011010110010000 0
#1048
b000001001000001010010010 0
#1049
b000001000100111110010100 0
#1050
b000001000001110010010110 0
#1051
b000001001110100110010111 0
#1052
b000001001011011010011001 0
#1053
b000001001000001110011011 0
#1054
b000001000101000010011101 0
#1055
b000001000001110110011111 0
#1056
b000001001110101010100000 0
#1057
b000001001011011110100010 0
#1058
b000001001000010010100100 0
#1059
b000001000101000110100110 0
#1060
b000001000001111010101000 0
#1061
b000001001110101110101001 0
#1062
b000001001011100010101011 0
#1063
b000001001000010110101101 0
#1064
b000001000101001010101111 0
#1065
b000001000001111110110001 0
#1066
b000001001110110010110010 0
#1067
b000001001011100110110100 0
#1068
b000001001000011010110110 0
#1069
b000001000101001110111000 0
#1070
b000001000010000010111010 0
#1071
b000001001110110110111011 0
#1072
b000001001011101010111101 0
#1073
b000001001000011110111111 0
#1074
b000001000101010011000001 0
#1075
b000001000010000111000011 0
#1076
b000001001110111011000100 0
#1077
b000001001011101111000110 0
#1078
b000001001000100011001000 0
#1079
b000001000101010111001010 0
#1080
b000001000010001011001100 0
#1081
b000001001110111111001101 0
#1082
b000001001011110011001111 0
#1083
b000001001000100111010001 0
#1084
b000001000101011011010011 0
#1085
b000001000010001111010101 0
#1086
b000001001111000011010110 0
#1087
b000001001011110111011000 0
#1088
b000001001000101011011010 0
#1089
b000001000101011111011100 0
#1090
b000001000010010011011110 0
#1091
b000001001111000111011111 0
#1092
b000001001011111011100001 0
#1093
b000001001000101111100011 0
#1094
b000001000101100011100101 0
#1095
b000001000010010111100111 0
#1096
b000001001111001011101000 0
#1097
b000001001011111111101010 0
#1098
b000001001000110011101100 0
#1099
b000001000101100111101110 0
#1100
b000001000010011011110000 0
#1101
b000001001111001111110001 0
#1102
b000001001100000011110011 0
#1103
b000001001000110111110101 0
#1104
b000001000101101011110111 0
#1105
b000001000010011111111001 0
#1106
b000001001111010011111010 0
#1107
b000001001100000111111100 0
#1108
b000001001000111011111110 0
#1109
b000001010101101100000000 0
#1110
b000001010010100000000010 0
#1111
b000001011111010100000011 0
#1112
b000001011100001000000101 0
#1113
b000001011000111100000111 0
#1114
b000001010101110000001001 0
#1115
b000001010010100100001011 0
#1116
b000001011111011000001100 0
#1117
b000001011100001100001110 0
#1118
b000001011001000000010000 0
#1119
b000001010101110100010010 0
#1120
b000001010010101000010100 0
#1121
b000001011111011100010101 0
#1122
b000001011100010000010111 0
#1123
b000001011001000100011001 0
#1124
b000001010101111000011011 0
#1125
b000001010010101100011101 0
#1126
b000001011111100000011110 0
#1127
b000001011100010100100000 0
#1128
b000001011001001000100010 0
#1129
b000001010101111100100100 0
#1130
b000001010010110000100110 0
#1131
b000001011111100100100111 0
#1132
b000001011100011000101001 0
#1133
b000001011001001100101011 0
#1134
b000001010110000000101101 0
#1135
b000001010010110100101111 0
#1136
b000001011111101000110000 0
#1137
b000001011100011100110010 0
#1138
b000001011001010000110100 0
#1139
b000001010110000100110110 0
#1140
b000001010010111000111000 0
#1141
b000001011111101100111001 0
#1142
b000001011100100000111011 0
#1143
b000001011001010100111101 0
#1144
b000001010110001000111111 0
#1145
b000001010010111101000001 0
#1146
b000001011111110001000010 0
#1147
b000001011100100101000100 0
#1148
b000001011001011001000110 0
#1149
b000001010110001101001000 0
#1150
b000001010011000001001010 0
#1151
b000001011111110101001011 0
#1152
b000001011100101001001101 0
#1153
b000001011001011101001111 0
#1154
b000001010110010001010001 0
#1155
b000001010011000101010011 0
#1156
b000001011111111001010100 0
#1157
b000001011100101101010110 0
#1158
b000001011001100001011000 0
#1159
b000001010110010101011010 0
#1160
b000001010011001001011100 0
#1161
b000001011111111101011101 0
#1162
b000001011100110001011111 0
#1163
b000001011001100101100001 0
#1164
b000001010110011001100011 0
#1165
b000001010011001101100101 0
#1166
b000001010000000001100111 0
#1167
b000001011100110101101000 0
#1168
b000001011001101001101010 0
#1169
b000001010110011101101100 0
#1170
b000001010011010001101110 0
#1171
b000001010000000101110000 0
#1172
b000001011100111001110001 0
#1173
b000001011001101101110011 0
#1174
b000001010110100001110101 0
#1175
b000001010011010101110111 0
#1176
b000001010000001001111001 0
#1177
b000001011100111101111010 0
#1178
b000001011001110001111100 0
#1179
b000001010110100101111110 0
#1180
b000001010011011010000000 0
#1181
b000001010000001110000010 0
#1182
b000001011101000010000011 0
#1183
b000001011001110110000101 0
#1184
b000001010110101010000111 0
#1185
b000001010011011110001001 0
#1186
b000001010000010010001011 0
#1187
b000001011101000110001100 0
#1188
b000001011001111010001110 0
#1189
b000001010110101110010000 0
#1190
b000001010011100010010010 0
#1191
b000001010000010110010100 0
#1192
b000001011101001010010101 0
#1193
b000001011001111110010111 0
#1194
b000001010110110010011001 0
#1195
b000001010011100110011011 0
#1196
b000001010000011010011101 0
#1197
b000001011101001110011110 0
#1198
b000001011010000010100000 0
#1199
b000001010110110110100010 0
#1200
b000001010011101010100100 0
#1201
b000001010000011110100110 0
#1202
b000001011101010010100111 0
#1203
b000001011010000110101001 0
#1204
b000001010110111010101011 0
#1205
b000001010011101110101101 0
#1206
b000001010000100010101111 0
#1207
b000001011101010110110000 0
#1208
b000001011010001010110010 0
#1209
b000001010110111110110100 0
#1210
b000001010011110010110110 0
#1211
b000001010000100110111000 0
#1212
b000001011101011010111001 0
#1213
b000001011010001110111011 0
#1214
b000001010111000010111101 0
#1215
b000001010011110110111111 0
#1216
b000001010000101011000001 0
#1217
b000001011101011111000010 0
#1218
b000001011010010011000100 0
#1219
b000001010111000111000110 0
#1220
b000001010011111011001000 0
#1221
b000001010000101111001010 0
#1222
b000001011101100011001011 0
#1223
b000001011010010111001101 0
#1224
b000001010111001011001111 0
#1225
b000001010011111111010001 0
#1226
b000001010000110011010011 0
#1227
b000001011101100111010100 0
#1228
b000001011010011011010110 0
#1229
b000001010111001111011000 0
#1230
b000001010100000011011010 0
#1231
b000001010000110111011100 0
#1232
b000001011101101011011101 0
#1233
b000001011010011111011111 0
#1234
b000001010111010011100001 0
#1235
b000001010100000111100011 0
#1236
b000001010000111011100101 0
#1237
b000001011101101111100110 0
#1238
b000001011010100011101000 0
#1239
b000001010111010111101010 0
#1240
b000001010100001011101100 0
#1241
b000001010000111111101110 0
#1242
b000001011101110011101111 0
#1243
b000001011010100111110001 0
#1244
b000001010111011011110011 0
#1245
b000001010100001111110101 0
#1246
b000001010001000011110111 0
#1247
b000001011101110111111000 0
#1248
b000001011010101011111010 0
#1249
b000001010111011111111100 0
#1250
b000001010100010011111110 0
#1251
b000001100001000100000000 0
#1252
b000001101101111000000001 0
#1253
b000001101010101100000011 0
#1254
b000001100111100000000101 0
#1255
b000001100100010100000111 0
#1256
b000001100001001000001001 0
#1257
b000001101101111100001010 0
#1258
b000001101010110000001100 0
#1259
b000001100111100100001110 0
#1260
b000001100100011000010000 0
#1261
b000001100001001100010010 0
#1262
b000001101110000000010011 0
#1263
b000001101010110100010101 0
#1264
b000001100111101000010111 0
#1265
b000001100100011100011001 0
#1266
b000001100001010000011011 0
#1267
b000001101110000100011100 0
#1268
b000001101010111000011110 0
#1269
b000001100111101100100000 0
#1270
b000001100100100000100010 0
#1271
b000001100001010100100100 0
#1272
b000001101110001000100101 0
#1273
b000001101010111100100111 0
#1274
b000001100111110000101001 0
#1275
b000001100100100100101011 0
#1276
b000001100001011000101101 0
#1277
b000001101110001100101110 0
#1278
b000001101011000000110000 0
#1279
b000001100111110100110010 0
#1280
b000001100100101000110100 0
#1281
b000001100001011100110110 0
#1282
b000001101110010000110111 0
#1283
b000001101011000100111001 0
#1284
b000001100111111000111011 0
#1285
b000001100100101100111101 0
#1286
b000001100001100000111111 0
#1287
b000001101110010101000000 0
#1288
b000001101011001001000010 0
#1289
b000001100111111101000100 0
#1290
b000001100100110001000110 0
#1291
b000001100001100101001000 0
#1292
b000001101110011001001001 0
#1293
b000001101011001101001011 0
#1294
b000001101000000001001101 0
#1295
b000001100100110101001111 0
#1296
b000001100001101001010001 0
#1297
b000001101110011101010010 0
#1298
b000001101011010001010100 0
#1299
b000001101000000101010110 0
#1300
b000001100100111001011000 0
#1301
b000001100001101101011010 0
#1302
b000001101110100001011011 0
#1303
b000001101011010101011101 0
#1304
b000001101000001001011111 0
#1305
b000001100100111101100001 0
#1306
b000001100001110001100011 0
#1307
b000001101110100101100100 0
#1308
b000001101011011001100110 0
#1309
b000001101000001101101000 0
#1310
b000001100101000001101010 0
#1311
b000001100001110101101100 0
#1312
b000001101110101001101101 0
#1313
b000001101011011101101111 0
#1314
b000001101000010001110001 0
#1315
b000001100101000101110011 0
#1316
b000001100001111001110101 0
#1317
b000001101110101101110110 0
#1318
b000001101011100001111000 0
#1319
b000001101000010101111010 0
#1320
b000001100101001001111100 0
#1321
b000001100001111101111110 0
#1322
b000001101110110001111111 0
#1323
b000001101011100110000001 0
#1324
b000001101000011010000011 0
#1325
b000001100101001110000101 0
#1326
b000001100010000010000111 0
#1327
b000001101110110110001000 0
#1328
b000001101011101010001010 0
#1329
b000001101000011110001100 0
#1330
b000001100101010010001110 0
#1331
b000001100010000110010000 0
