FPGA/Architecture2(2K@50Hz)/2k@50+/2k@50+/la0_waveform.vcd
#0 $dumpon
$date today $end
$timescale 1 ns $end
$scope module top $end
$var wire 27 0 u_data_in_uart_control_top/rgb_bicubic_u/red_interp/x_dec $end
$var wire 27 1 u_data_in_uart_control_top/rgb_bicubic_u/red_interp/y_dec $end
$var wire 8 2 u_data_in_uart_control_top/rgb_bicubic_u/red_interp/post_img_gray $end
$var wire 1 3 u_data_in_uart_control_top/rgb_bicubic_u/red_interp/post_img_href $end
$var wire 17 4 u_data_in_uart_control_top/rgb_bicubic_u/bi_x0_c10 $end
$var wire 18 5 u_data_in_uart_control_top/rgb_bicubic_u/u_BiCubic/BiCubic_x0_inst/mul_add_2_d $end
$var wire 38 6 u_data_in_uart_control_top/rgb_bicubic_u/u_BiCubic/BiCubic_x0_inst/BiCubic_1_3 $end
$var wire 40 7 u_data_in_uart_control_top/rgb_bicubic_u/u_BiCubic/BiCubic_x0_inst/BiCubic_1_4 $end
$var wire 28 8 u_data_in_uart_control_top/rgb_bicubic_u/u_BiCubic/BiCubic_x0_inst/BiCubic_1_2 $end
$var wire 10 9 u_data_in_uart_control_top/rgb_bicubic_u/u_BiCubic/BiCubic_x0_inst/mul_4_x0_inst/b $end
$var wire 40 a u_data_in_uart_control_top/rgb_bicubic_u/u_BiCubic/BiCubic_x0_inst/mul_4_x0_inst/result $end
$var wire 20 b u_data_in_uart_control_top/rgb_bicubic_u/u_BiCubic/BiCubic_x0_inst/mul_4_x0_inst/result0_c2 $end
$var wire 10 c u_data_in_uart_control_top/rgb_bicubic_u/u_BiCubic/BiCubic_x0_inst/mul_4_x0_inst/c $end
$var wire 10 d u_data_in_uart_control_top/rgb_bicubic_u/u_BiCubic/BiCubic_x0_inst/mul_4_x0_inst/d_c1 $end
$var wire 10 e u_data_in_uart_control_top/rgb_bicubic_u/u_BiCubic/BiCubic_x0_inst/mul_4_x0_inst/a $end
$var wire 20 f u_data_in_uart_control_top/rgb_bicubic_u/u_BiCubic/BiCubic_x0_inst/mul_4_x0_inst/result1_c2 $end
$var wire 10 10 u_data_in_uart_control_top/rgb_bicubic_u/u_BiCubic/BiCubic_x0_inst/mul_4_x0_inst/d $end
$var wire 10 11 u_data_in_uart_control_top/rgb_bicubic_u/u_BiCubic/BiCubic_x0_inst/mul_4_x0_inst/c_c1 $end
$var wire 40 12 u_data_in_uart_control_top/rgb_bicubic_u/u_BiCubic/BiCubic_x0_inst/mul_4_x0_inst/result4_c3 $end
$var wire 20 13 u_data_in_uart_control_top/rgb_bicubic_u/u_BiCubic/BiCubic_x0_inst/mul_4_x0_inst/result0 $end
$upscope $end
$enddefinitions $end
#0
$dumpvars
b000000000000000000000000000 0
b000100101100001110101110000 1
b11111111 2
03
b00000000000000000 4
b000000001000000000 5
b00000000000010100000000000000000000000 6
b0000000010000000000000000000000000000000 7
b0000000001000000000000000000 8
b0100000000 9
b0000000010000000000000000000000000000000 a
b00001000000000000000 b
b0100000000 c
b0100000000 d
b0010000000 e
b00010000000000000000 f
b0100000000 10
b0100000000 11
b0000000010000000000000000000000000000000 12
b00001000000000000000 13
$end
#111
b000000000001110011101101001 0
#112
b000000000011100111011010010 0
#113
b000000000101011011000111011 0
b0111100111 9
b0111100111 c
b0111100111 10
#114
b000000000111001110110100100 0
b0111001110 9
b0111001110 c
b0111100111 d
b0111001110 10
b0111100111 11
b00001111001110000000 13
#115
b000000001001000010100001101 0
b0110110110 9
b00001111001110000000 b
b0110110110 c
b0111001110 d
b00111001111001110001 f
b0110110110 10
b0111001110 11
b00001110011100000000 13
#116
b000000001010110110001110110 0
b0110011101 9
b00001110011100000000 b
b0110011101 c
b0110110110 d
b00110100000111000100 f
b0110011101 10
b0110110110 11
b0100001001110001001101000111101110000000 12
b00001101101100000000 13
#117
b000000001100101001111011111 0
b00000000001001000011000001101010000000 6
b0100001001110001001101000111101110000000 7
b0000000001111001110000000000 8
b0110000101 9
b0100001001110001001101000111101110000000 a
b00001101101100000000 b
b0110000101 c
b0110011101 d
b00101110110101100100 f
b0110000101 10
b0110011101 11
b0000001101110000010101111101110000000000 12
b00001100111010000000 13
#118
b000000001110011101101001000 0
b00000000001000001001000110101000000000 6
b0000001101110000010101111101110000000000 7
b0000000001110011100000000000 8
b0101101100 9
b0000001101110000010101111101110000000000 a
b00001100111010000000 b
b0101101100 c
b0110000101 d
b00101001101001001001 f
b0101101100 10
b0110000101 11
b0000001010000001000101001000110000000000 12
b00001100001010000000 13
#119
b000000010000010001010110001 0
b00000000000111010100010111101000000000 6
b0000001010000001000101001000110000000000 7
b0000000001101101100000000000 8
b0101010011 9
b0000001010000001000101001000110000000000 a
b00001100001010000000 b
b0101010011 c
b0101101100 d
b00100100111100011001 f
b0101010011 10
b0101101100 11
b0000001100011001011100111110001010000000 12
b00001011011000000000 13
#120
b000000010010000101000011010 0
b00000000000110100000011011011010000000 6
b0000001100011001011100111110001010000000 7
b0000000001100111010000000000 8
b0100111011 9
b0000001100011001011100111110001010000000 a
b00001011011000000000 b
b0100111011 c
b0101010011 d
b00100000010110010000 f
b0100111011 10
b0101010011 11
b0000000111000001000110000111111010000000 12
b00001010100110000000 13
#121
b000000010011111000110000011 0
b10000000100011001 4
b00000000000101110001011011111010000000 6
b0000000111000001000110000111111010000000 7
b0000000001100001010000000000 8
b0100100010 9
b0000000111000001000110000111111010000000 a
b00001010100110000000 b
b0100100010 c
b0100111011 d
b00011100000011101001 f
b0100100010 10
b0100111011 11
b0000000011101111111101000110000000000000 12
b00001001110110000000 13
#122
b000000010101101100011101100 0
b01000001111101101 4
b00000000000101000011011110100000000000 6
b0000000011101111111101000110000000000000 7
b0000000001011011000000000000 8
b0100001010 9
b0000000011101111111101000110000000000000 a
b00001001110110000000 b
b0100001010 c
b0100100010 d
b00011000001110011001 f
b0100001010 10
b0100100010 11
b0000000010101001001110100100010110000000 12
b00001001000100000000 13
#123
b000000010111100000001010101 0
b00000011110011010 4
b00000000000100011000100100011010000000 6
b0000000010101001001110100100010110000000 7
b0000000001010100110000000000 8
b0111110001 9
b0000000010101001001110100100010110000000 a
b00001001000100000000 b
b0111110001 c
b0100001010 d
b00010100100010000100 f
b0111110001 10
b0100001010 11
b0000000011101110011101101010000110000000 12
b00001000010100000000 13
#124
b000000011001010011110111110 0
b10000101110111101 4
b00000000000011110010001111111010000000 6
b0000000011101110011101101010000110000000 7
b0000000001001110110000000000 8
b0111011000 9
b0000000011101110011101101010000110000000 a
b00001000010100000000 b
b0111011000 c
b0111110001 d
b00010001010001100100 f
b0111011000 10
b0111110001 11
b0011000010111010000100101100010000000000 12
b00001111100010000000 13
#125
b000000011011000111100100111 0
b00000111101011001 4
b00000000000011001101010100101000000000 6
b0011000010111010000100101100010000000000 7
b0000000001001000100000000000 8
b0111000000 9
b0011000010111010000100101100010000000000 a
b00001111100010000000 b
b0111000000 c
b0111011000 d
b00111100010011100001 f
b0111000000 10
b0111011000 11
b0000010000001111100101111111010000000000 12
b00001110110000000000 13
#126
b000000011100111011010010000 0
b11001001000001100 4
b00000000000010101100101111101000000000 6
b0000010000001111100101111111010000000000 7
b0000000001000010100000000000 8
b0110100111 9
b0000010000001111100101111111010000000000 a
b00001110110000000000 b
b0110100111 c
b0111000000 d
b00110110011001000000 f
b0110100111 10
b0111000000 11
b0000001100101000100111000110100010000000 12
b00001110000000000000 13
#127
b000000011110101110111111001 0
b11001001011110011 4
b00000000001001011011000011001010000000 6
b0000001100101000100111000110100010000000 7
b0000000001111100010000000000 8
b0110001111 9
b0000001100101000100111000110100010000000 a
b00001110000000000000 b
b0110001111 c
b0110100111 d
b00110001000000000000 f
b0110001111 10
b0110100111 11
b0100001100100010010000110000000000000000 12
b00001101001110000000 13
#128
b000000100000100010101100010 0
13
b00001000101111000 4
b00000000001000011111111010000000000000 6
b0100001100100010010000110000000000000000 7
b0000000001110110000000000000 8
b0101110110 9
b0100001100100010010000110000000000000000 a
b00001101001110000000 b
b0101110110 c
b0110001111 d
b00101011101011110001 f
b0101110110 10
b0110001111 11
b0000001010101110000000000000000000000000 12
b00001100011110000000 13
#129
b000000100010010110011001011 0
b00000000 2
b00000110011001000 4
b00000000000111101010000000000000000000 6
b0000001010101110000000000000000000000000 7
b0000000001110000000000000000 8
b0101011101 9
b0000001010101110000000000000000000000000 a
b00001100011110000000 b
b0101011101 c
b0101110110 d
b00100110110111100001 f
b0101011101 10
b0101110110 11
b0000100101000001011100100001101110000000 12
b00001011101100000000 13
#130
b000000100100001010000110100 0
b01111111 2
b11000010010011101 4
b00000000000110110100110101101010000000 6
b0000100101000001011100100001101110000000 7
b0000000001101001110000000000 8
b0101000101 9
b0000100101000001011100100001101110000000 a
b00001011101100000000 b
b0101000101 c
b0101011101 d
b00100010001001100100 f
b0101000101 10
b0101011101 11
b0000000111100100101000001101011110000000 12
b00001010111010000000 13
#131
b000000100101111101110011101 0
b11111111 2
b11000000001101001 4
b00000000000110000100101011001010000000 6
b0000000111100100101000001101011110000000 7
b0000000001100011110000000000 8
b0100101100 9
b0000000111100100101000001101011110000000 a
b00001010111010000000 b
b0100101100 c
b0101000101 d
b00011101101111001001 f
b0100101100 10
b0101000101 11
b0000000110001111000111110000110000000000 12
b00001010001010000000 13
#132
b000000100111110001100000110 0
b10000000 2
b00000001010100011 4
b00000000000101010101011111101000000000 6
b0000000110001111000111110000110000000000 7
b0000000001011101100000000000 8
b0100010100 9
b0000000110001111000111110000110000000000 a
b00001010001010000000 b
b0100010100 c
b0100101100 d
b00011001110010011001 f
b0100010100 10
b0100101100 11
b0100001001000100010100001000001010000000 12
b00001001011000000000 13
#133
b000000101001100101001101111 0
b11111111 2
b00000011000000000 4
b00000000000100101001010111011010000000 6
b0100001001000100010100001000001010000000 7
b0000000001010111010000000000 8
b0111111011 9
b0100001001000100010100001000001010000000 a
b00001001011000000000 b
b0111111011 c
b0100010100 d
b00010101111110010000 f
b0111111011 10
b0100010100 11
b0000000100000101111001110001111010000000 12
b00001000101000000000 13
#134
b000000101011011000111011000 0
b10000000 2
b10000101000010111 4
b00000000000100000001110111111010000000 6
b0000000100000101111001110001111010000000 7
b0000000001010001010000000000 8
b0111100011 9
b0000000100000101111001110001111010000000 a
b00001000101000000000 b
b0111100011 c
b0111111011 d
b00010010100110010000 f
b0111100011 10
b0111111011 11
b0000100011001101111111100110000000000000 12
b00001111110110000000 13
#135
b000000101101001100101000001 0
b00000000 2
b00000110111101110 4
b00000000000011011011101110100000000000 6
b0000100011001101111111100110000000000000 7
b0000000001001011000000000000 8
b0111001010 9
b0000100011001101111111100110000000000000 a
b00001111110110000000 b
b0111001010 c
b0111100011 d
b00111110110000011001 f
b0111001010 10
b0111100011 11
b0000000010100000011001111010000000000000 12
b00001111000110000000 13
#136
b000000101111000000010101010 0
b11111111 2
b00001000100100101 4
b00000000000010111001111110100000000000 6
b0000000010100000011001111010000000000000 7
b0000000001000101000000000000 8
b0110110001 9
b0000000010100000011001111010000000000000 a
b00001111000110000000 b
b0110110001 c
b0111001010 d
b00111000111101001001 f
b0110110001 10
b0111001010 11
b0000001111100010010010101100000110000000 12
b00001110010100000000 13
#137
b000000110000110100000010011 0
b10001001011011010 4
b00000000001001110011100011111010000000 6
b0000001111100010010010101100000110000000 7
b0000000001111110110000000000 8
b0110011001 9
b0000001111100010010010101100000110000000 a
b00001110010100000000 b
b0110011001 c
b0110110001 d
b00110011001101100100 f
b0110011001 10
b0110110001 11
b0000001101011011101010110101110110000000 12
b00001101100010000000 13
#138
b000000110010100111101111100 0
b00000000 2
b00001001001101000 4
b00000000001000111001100011011010000000 6
b0000001101011011101010110101110110000000 7
b0000000001111000110000000000 8
b0110000000 9
b0000001101011011101010110101110110000000 a
b00001101100010000000 b
b0110000000 c
b0110011001 d
b00101101110001100001 f
b0110000000 10
b0110011001 11
b0000000111011100111110000111010000000000 12
b00001100110010000000 13
#139
b000000110100011011011100101 0
b10000000 2
b00000111100010110 4
b00000000001000000000000111101000000000 6
b0000000111011100111110000111010000000000 7
b0000000001110010100000000000 8
b0101101000 9
b0000000111011100111110000111010000000000 a
b00001100110010000000 b
b0101101000 c
b0110000000 d
b00101000110101110001 f
b0101101000 10
b0110000000 11
b0000001001101011011000000000100010000000 12
b00001100000000000000 13
#140
b000000110110001111001001110 0
b11111111 2
b00000100001111111 4
b00000000000111001001101111001010000000 6
b0000001001101011011000000000100010000000 7
b0000000001101100010000000000 8
b0101001111 9
b0000001001101011011000000000100010000000 a
b00001100000000000000 b
b0101001111 c
b0101101000 d
b00100100000000000000 f
b0101001111 10
b0101101000 11
b0000001000001001111111001100010010000000 12
b00001011010000000000 13
#141
b000000111000000010110110111 0
b00000000000001100 4
b00000000000110011000011001101010000000 6
b0000001000001001111111001100010010000000 7
b0000000001100110010000000000 8
b0100110110 9
b0000001000001001111111001100010010000000 a
b00001011010000000000 b
b0100110110 c
b0101001111 d
b00011111101001000000 f
b0100110110 10
b0101001111 11
b0000000110110000000000000000000000000000 12
b00001010011110000000 13
#142
b000000111001110110100100000 0
b00000000 2
b00000000101110100 4
b00000000000101101000000000000000000000 6
b0000000110110000000000000000000000000000 7
b0000000001100000000000000000 8
b0100011110 9
b0000000110110000000000000000000000000000 a
b00001010011110000000 b
b0100011110 c
b0100110110 d
b00011011011001100001 f
b0100011110 10
b0100110110 11
b0011000101100011111101010000000000000000 12
b00001001101100000000 13
#143
b000000111011101010010001001 0
b11111111 2
b10000010001111110 4
b00000000000100111100011010000000000000 6
b0011000101100011111101010000000000000000 7
b0000000001011010000000000000 8
b0100000101 9
b0011000101100011111101010000000000000000 a
b00001001101100000000 b
b0100000101 c
b0100011110 d
b00010111011101100100 f
b0100000101 10
b0100011110 11
b0000000000011110110101000111011110000000 12
b00001000111100000000 13
#144
b000000111101011101111110010 0
b00000100001101101 4
b00000000000100010001111111001010000000 6
b0000000000011110110101000111011110000000 7
b0000000001010011110000000000 8
b0111101101 9
b0000000000011110110101000111011110000000 a
b00001000111100000000 b
b0111101101 c
b0100000101 d
b00010011111110000100 f
b0111101101 10
b0100000101 11
b0000000011100011010010011000110000000000 12
b00001000001010000000 13
#145
b000000111111010001101011011 0
b00000000 2
b00000110001100010 4
b00000000000011101010100111101000000000 6
b0000000011100011010010011000110000000000 7
b0000000001001101100000000000 8
b0111010100 9
b0000000011100011010010011000110000000000 a
b00001000001010000000 b
b0111010100 c
b0111101101 d
b00010000101000011001 f
b0111010100 10
b0111101101 11
b0000010100110010011110101011110000000000 12
b00001111011010000000 13
#146
b000001000001000101011000100 0
b11111111 2
b00001000000000000 4
b00000000000011000111101100101000000000 6
b0000010100110010011110101011110000000000 7
b0000000001000111100000000000 8
b0110111011 9
b0000010100110010011110101011110000000000 a
b00001111011010000000 b
b0110111011 c
b0111010100 d
b00111011010101101001 f
b0110111011 10
b0111010100 11
b0000000010000111101001011011111010000000 12
b00001110101000000000 13
#147
b000001000010111001000101101 0
b00001001001010101 4
b00000000000010100110010011111010000000 6
b0000000010000111101001011011111010000000 7
b0000000001000001010000000000 8
b0110100011 9
b0000000010000111101001011011111010000000 a
b00001110101000000000 b
b0110100011 c
b0110111011 d
b00110101011110010000 f
b0110100011 10
b0110111011 11
b0000001110010010001011011001101010000000 12
b00001101110110000000 13
#148
b000001000100101100110010110 0
b10001001011100001 4
b00000000001001010001011000011010000000 6
b0000001110010010001011011001101010000000 7
b0000000001111011010000000000 8
b0110001010 9
b0000001110010010001011011001101010000000 a
b00001101110110000000 b
b0110001010 c
b0110100011 d
b00101111111010011001 f
b0110001010 10
b0110100011 11
b0000111100001110000010011010000000000000 12
b00001101000110000000 13
#149
b000001000110100000011111111 0
b00001000011001111 4
b00000000001000010110101110100000000000 6
b0000111100001110000010011010000000000000 7
b0000000001110101000000000000 8
b0101110010 9
b0000111100001110000010011010000000000000 a
b00001101000110000000 b
b0101110010 c
b0110001010 d
b00101010110111001001 f
b0101110010 10
b0110001010 11
b0000101000010111010010010110000110000000 12
b00001100010100000000 13
#150
b000001001000010100001101000 0
b01000101110110000 4
b00000000000111011111000111111010000000 6
b0000101000010111010010010110000110000000 7
b0000000001101110110000000000 8
b0101011001 9
b0000101000010111010010010110000110000000 a
b00001100010100000000 b
b0101011001 c
b0101110010 d
b00100101111001100100 f
b0101011001 10
b0101110010 11
b0000001000110001001101111111110110000000 12
b00001011100100000000 13
#151
b000001001010000111111010001 0
b00000000 2
b00000001001100111 4
b00000000000110101100100111011010000000 6
b0000001000110001001101111111110110000000 7
b0000000001101000110000000000 8
b0101000000 9
b0000001000110001001101111111110110000000 a
b00001011100100000000 b
b0101000000 c
b0101011001 d
b00100001011011000100 f
b0101000000 10
b0101011001 11
b0000110111010010101000101111010000000000 12
b00001010110010000000 13
#152
b000001001011111011100111010 0
b11111111 2
b00000000010100111 4
b00000000000101111010111111101000000000 6
b0000110111010010101000101111010000000000 7
b0000000001100010100000000000 8
b0100101000 9
b0000110111010010101000101111010000000000 a
b00001010110010000000 b
b0100101000 c
b0101000000 d
b00011101000011110001 f
b0100101000 10
b0101000000 11
b0000000000000010011100111010010000000000 12
b00001010000000000000 13
#153
b000001001101101111010100011 0
b00000001100100001 4
b00000000000101001110001110101000000000 6
b0000000000000010011100111010010000000000 7
b0000000001011100100000000000 8
b0100001111 9
b0000000000000010011100111010010000000000 a
b00001010000000000000 b
b0100001111 c
b0100101000 d
b00011001000000000000 f
b0100001111 10
b0100101000 11
b0000000000111001010010100110010010000000 12
b00001001010000000000 13
#154
b000001001111100011000001100 0
b11000011011001010 4
b00000000000100100010100101101010000000 6
b0000000000111001010010100110010010000000 7
b0000000001010110010000000000 8
b0111110111 9
b0000000000111001010010100110010010000000 a
b00001001010000000000 b
b0111110111 c
b0100001111 d
b00010101011001000000 f
b0111110111 10
b0100001111 11
b0000000011111010000000000000000000000000 12
b00001000011110000000 13
#155
b000001010001010110101110101 0
b00000101011000001 4
b00000000000011111010000000000000000000 6
b0000000011111010000000000000000000000000 7
b0000000001010000000000000000 8
b0111011110 9
b0000000011111010000000000000000000000000 a
b00001000011110000000 b
b0111011110 c
b0111110111 d
b00010001111011100001 f
b0111011110 10
b0111110111 11
b0001100011000101110111010000000000000000 12
b00001111101110000000 13
#156
b000001010011001010011011110 0
b00000000 2
b00000111010101000 4
b00000000000011010101111010000000000000 6
b0001100011000101110111010000000000000000 7
b0000000001001010000000000000 8
b0111000110 9
b0001100011000101110111010000000000000000 a
b00001111101110000000 b
b0111000110 c
b0111011110 d
b00111101110001010001 f
b0111000110 10
b0111011110 11
b0110111010010111110110000001011110000000 12
b00001110111100000000 13
#157
b000001010100111110001000111 0
b11111111 2
b01001000110001001 4
b00000000000010110011010011001010000000 6
b0110111010010111110110000001011110000000 7
b0000000001000011110000000000 8
b0110101101 9
b0110111010010111110110000001011110000000 a
b00001110111100000000 b
b0110101101 c
b0111000110 d
b00110111110010000100 f
b0110101101 10
b0111000110 11
b0000001111001010111100011001001110000000 12
b00001110001100000000 13
#158
b000001010110110001110110000 0
b10001001011101111 4
b00000000001001101001101100101010000000 6
b0000001111001010111100011001001110000000 7
b0000000001111101110000000000 8
b0110010100 9
b0000001111001010111100011001001110000000 a
b00001110001100000000 b
b0110010100 c
b0110101101 d
b00110010010100100100 f
b0110010100 10
b0110101101 11
b0000001001000001001111110011110000000000 12
b00001101011010000000 13
#159
b000001011000100101100011001 0
b00001001000000000 4
b00000000001000101101110100101000000000 6
b0000001001000001001111110011110000000000 7
b0000000001110111100000000000 8
b0101111100 9
b0000001001000001001111110011110000000000 a
b00001101011010000000 b
b0101111100 c
b0110010100 d
b00101100111011101001 f
b0101111100 10
b0110010100 11
b0000001011001001111011101110110000000000 12
b00001100101000000000 13
#160
b000001011010011001010000010 0
b00000111000111101 4
b00000000000111110111001101101000000000 6
b0000001011001001111011101110110000000000 7
b0000000001110001100000000000 8
b0101100011 9
b0000001011001001111011101110110000000000 a
b00001100101000000000 b
b0101100011 c
b0101111100 d
b00100111110110010000 f
b0101100011 10
b0101111100 11
b0100000101011010010111100011101010000000 12
b00001011111000000000 13
#161
b000001011100001100111101011 0
b00000011010100101 4
b00000000000111000001010100011010000000 6
b0100000101011010010111100011101010000000 7
b0000000001101011010000000000 8
b0101001011 9
b0100000101011010010111100011101010000000 a
b00001011111000000000 b
b0101001011 c
b0101100011 d
b00100011010000010000 f
b0101001011 10
b0101100011 11
b0000000111110111000100111010000000000000 12
b00001011000110000000 13
#162
b000001011110000000101010100 0
b10000000 2
b00000000000100111 4
b00000000000110001110011110100000000000 6
b0000000111110111000100111010000000000000 7
b0000000001100101000000000000 8
b0100110010 9
b0000000111110111000100111010000000000000 a
b00001011000110000000 b
b0100110010 c
b0101001011 d
b00011110110001001001 f
b0100110010 10
b0101001011 11
b0000000110100010101000111110000000000000 12
b00001010010110000000 13
#163
b000001011111110100010111101 0
b11111111 2
b10000000111110101 4
b00000000000101100000100010100000000000 6
b0000000110100010101000111110000000000000 7
b0000000001011111000000000000 8
b0100011001 9
b0000000110100010101000111110000000000000 a
b00001010010110000000 b
b0100011001 c
b0100110010 d
b00011010101111111001 f
b0100011001 10
b0100110010 11
b0011100100010101010101001001110110000000 12
b00001001100100000000 13
#164
b000001100001101000000100110 0
b00000010100010100 4
b00000000000100110011101011011010000000 6
b0011100100010101010101001001110110000000 7
b0000000001011000110000000000 8
b0100000001 9
b0011100100010101010101001001110110000000 a
b00001001100100000000 b
b0100000001 c
b0100011001 d
b00010110110111000100 f
b0100000001 10
b0100011001 11
b0100100000010100101011010111100110000000 12
b00001000110010000000 13
#165
b000001100011011011110001111 0
b10000000 2
b10000100100010111 4
b00000000000100001011011110111010000000 6
b0100100000010100101011010111100110000000 7
b0000000001010010110000000000 8
b0111101000 9
b0100100000010100101011010111100110000000 a
b00001000110010000000 b
b0111101000 c
b0100000001 d
b00010011010001110001 f
b0111101000 10
b0100000001 11
b0000000011011010100110100010010000000000 12
b00001000000010000000 13
#166
b000001100101001111011111000 0
b00000000 2
b00000110100101011 4
b00000000000011100100100110101000000000 6
b0000000011011010100110100010010000000000 7
b0000000001001100100000000000 8
b0111010000 9
b0000000011011010100110100010010000000000 a
b00001000000010000000 b
b0111010000 c
b0111101000 d
b00010000001000000001 f
b0111010000 10
b0111101000 11
b0000000010101001010010000000010010000000 12
b00001111010000000000 13
#167
b000001100111000011001100001 0
b11111111 2
b00001000001111011 4
b00000000000011000000110001101010000000 6
b0000000010101001010010000000010010000000 7
b0000000001000110010000000000 8
b0110110111 9
b0000000010101001010010000000010010000000 a
b00001111010000000000 b
b0110110111 c
b0111010000 d
b00111010001001000000 f
b0110110111 10
b0111010000 11
b0000100010000001100000011000000010000000 12
b00001110100000000000 13
#168
b000001101000110110111001010 0
b11101001010011110 4
b00000000000010100001010000001010000000 6
b0000100010000001100000011000000010000000 7
b0000000001000000010000000000 8
b0110011110 9
b0000100010000001100000011000000010000000 a
b00001110100000000000 b
b0110011110 c
b0110110111 d
b00110100100100000000 f
b0110011110 10
b0110110111 11
b0000001101110110101001010000000000000000 12
b00001101101110000000 13
#169
b000001101010101010100110011 0
b10001001010111110 4
b00000000001001000101011010000000000000 6
b0000001101110110101001010000000000000000 7
b0000000001111010000000000000 8
b0110000110 9
b0000001101110110101001010000000000000000 a
b00001101101110000000 b
b0110000110 c
b0110011110 d
b00101111000011010001 f
b0110000110 10
b0110011110 11
b0011001011111010001010000000000000000000 12
b00001100111100000000 13
#170
b000001101100011110010011100 0
b00001000000110000 4
b00000000001000001101101000000000000000 6
b0011001011111010001010000000000000000000 7
b0000000001110100000000000000 8
b0101101101 9
b0011001011111010001010000000000000000000 a
b00001100111100000000 b
b0101101101 c
b0110000110 d
b00101001110110000100 f
b0101101101 10
b0110000110 11
b0000001000000101011110110011001110000000 12
b00001100001100000000 13
#171
b000001101110010010000000101 0
b00000101000101101 4
b00000000000111010110100000101010000000 6
b0000001000000101011110110011001110000000 7
b0000000001101101110000000000 8
b0101010101 9
b0000001000000101011110110011001110000000 a
b00001100001100000000 b
b0101010101 c
b0101101101 d
b00100101001000100100 f
b0101010101 10
b0101101101 11
b0011001000011101010111011011110000000000 12
b00001011011010000000 13
#172
b000001110000000101101101110 0
b00000000001111111 4
b00000000000110100010011100101000000000 6
b0011001000011101010111011011110000000000 7
b0000000001100111100000000000 8
b0100111100 9
b0011001000011101010111011011110000000000 a
b00001011011010000000 b
b0100111100 c
b0101010101 d
b00100000100001101001 f
b0100111100 10
b0101010101 11
b0000000011000100100100010110110000000000 12
b00001010101010000000 13
#173
b000001110001111001011010111 0
b00000000100000101 4
b00000000000101110011010101101000000000 6
b0000000011000100100100010110110000000000 7
b0000000001100001100000000000 8
b0100100100 9
b0000000011000100100100010110110000000000 a
b00001010101010000000 b
b0100100100 c
b0100111100 d
b00011100011000111001 f
b0100100100 10
b0100111100 11
b0011000101110010111111101101101010000000 12
b00001001111000000000 13
#174
b000001110011101101001000000 0
b00000001110101000 4
b00000000000101000101010000011010000000 6
b0011000101110010111111101101101010000000 7
b0000000001011011010000000000 8
b0100001011 9
b0011000101110010111111101101101010000000 a
b00001001111000000000 b
b0100001011 c
b0100100100 d
b00011000011000010000 f
b0100001011 10
b0100100100 11
b0000000100101110100001001111011010000000 12
b00001001001000000000 13
#175
b000001110101100000110101001 0
b11000011101110000 4
b00000000000100011011111000111010000000 6
b0000000100101110100001001111011010000000 7
b0000000001010101010000000000 8
b0111110010 9
b0000000100101110100001001111011010000000 a
b00001001001000000000 b
b0111110010 c
b0100001011 d
b00010100110100010000 f
b0111110010 10
b0100001011 11
b0000000011110000101111011110000000000000 12
b00001000010110000000 13
#176
b000001110111010100100010010 0
b00000000 2
b00000101110010011 4
b00000000000011110011110010100000000000 6
b0000000011110000101111011110000000000000 7
b0000000001001111000000000000 8
b0111011010 9
b0000000011110000101111011110000000000000 a
b00001000010110000000 b
b0111011010 c
b0111110010 d
b00010001011001111001 f
b0111011010 10
b0111110010 11
b0011000010111101111100110010000000000000 12
b00001111100100000000 13
#177
b000001111001001000001111011 0
b10000111100110111 4
b00000000000011010000001010100000000000 6
b0011000010111101111100110010000000000000 7
b0000000001001001000000000000 8
b0111000001 9
b0011000010111101111100110010000000000000 a
b00001111100100000000 b
b0111000001 c
b0111011010 d
b00111100100011000100 f
b0111000001 10
b0111011010 11
b0000000010010001001110000001100110000000 12
b00001110110100000000 13
#178
b000001111010111011111100100 0
b11111111 2
b00001000111111000 4
b00000000000010101110000010111010000000 6
b0000000010010001001110000001100110000000 7
b0000000001000010110000000000 8
b0110101001 9
b0000000010010001001110000001100110000000 a
b00001110110100000000 b
b0110101001 c
b0111000001 d
b00110110110110100100 f
b0110101001 10
b0111000001 11
b0000011010101110010001101010010000000000 12
b00001110000010000000 13
#179
b000001111100101111101001101 0
b00001001011110110 4
b00000000001001011101011110101000000000 6
b0000011010101110010001101010010000000000 7
b0000000001111100100000000000 8
b0110010000 9
b0000011010101110010001101010010000000000 a
b00001110000010000000 b
b0110010000 c
b0110101001 d
b00110001001110000001 f
b0110010000 10
b0110101001 11
b0000001000101100100000001101010000000000 12
b00001101010010000000 13
#180
b000001111110100011010110110 0
b00001000110010101 4
b00000000001000100100100001101000000000 6
b0000001000101100100000001101010000000000 7
b0000000001110110100000000000 8
b0101110111 9
b0000001000101100100000001101010000000000 a
b00001101010010000000 b
b0101110111 c
b0110010000 d
b00101100000110010001 f
b0101110111 10
b0110010000 11
b0000101010110010100110101010000010000000 12
b00001100100000000000 13
#181
b000010000000010111000011111 0
b00000110101001011 4
b00000000000111101100001100001010000000 6
b0000101010110010100110101010000010000000 7
b0000000001110000010000000000 8
b0101011111 9
b0000101010110010100110101010000010000000 a
b00001100100000000000 b
b0101011111 c
b0101110111 d
b00100111000100000000 f
b0101011111 10
b0101110111 11
b0000001001001001101011001101110010000000 12
b00001011101110000000 13
#182
b000010000010001010110001000 0
b00000010100001001 4
b00000000000110111000111110101010000000 6
b0000001001001001101011001101110010000000 7
b0000000001101010010000000000 8
b0101000110 9
b0000001001001001101011001101110010000000 a
b00001011101110000000 b
b0101000110 c
b0101011111 d
b00100010010101010001 f
b0101000110 10
b0101011111 11
b0000000111101000010010000000000000000000 12
b00001010111110000000 13
#183
b000010000011111110011110001 0
b01111111 2
b10000000001011100 4
b00000000000110000110101000000000000000 6
b0000000111101000010010000000000000000000 7
b0000000001100100000000000000 8
b0100101110 9
b0000000111101000010010000000000000000000 a
b00001010111110000000 b
b0100101110 c
b0101000110 d
b00011110000101000001 f
b0100101110 10
b0101000110 11
b0000000110010010010101001101001110000000 12
b00001010001100000000 13
#184
b000010000101110010001011010 0
b11111111 2
b10000001001100110 4
b00000000000101010111010100101010000000 6
b0000000110010010010101001101001110000000 7
b0000000001011101110000000000 8
b0100010101 9
b0000000110010010010101001101001110000000 a
b00001010001100000000 b
b0100010101 c
b0100101110 d
b00011001111100100100 f
b0100010101 10
b0100101110 11
b0000000101001001111011000000111110000000 12
b00001001011100000000 13
#185
b000010000111100101111000011 0
b00000000 2
b00000010111011000 4
b00000000000100101100110010001010000000 6
b0000000101001001111011000000111110000000 7
b0000000001010111110000000000 8
b0111111100 9
b0000000101001001111011000000111110000000 a
b00001001011100000000 b
b0111111100 c
b0100010101 d
b00010110010001000100 f
b0111111100 10
b0100010101 11
b0100000000001000010100111110110000000000 12
b00001000101010000000 13
#186
b000010001001011001100101100 0
b11111111 2
b00000100111000010 4
b00000000000100000011011101101000000000 6
b0100000000001000010100111110110000000000 7
b0000000001010001100000000000 8
b0111100100 9
b0100000000001000010100111110110000000000 a
b00001000101010000000 b
b0111100100 c
b0111111100 d
b00010010101110111001 f
b0111100100 10
b0111111100 11
b0000000011010010001001000001110000000000 12
b00001111111000000000 13
